<svg width="17" height="10" viewBox="0 0 17 10" fill="none" xmlns="http://www.w3.org/2000/svg">
<g id="Group 8">
<path id="Vector 8" d="M1 1H16" stroke="#290247" stroke-linecap="round"/>
<path id="Vector 9" d="M1 5H16" stroke="#290247" stroke-linecap="round"/>
<path id="Vector 10" d="M1 9H16" stroke="#290247" stroke-linecap="round"/>
</g>
</svg>
